unq:!name@System.system_id,unq:name@Station.station_id,unq:name@Ship.ship_id
'ACHENAR','Bell Terminal','Asp'
'ACHENAR','Bell Terminal','Eagle'
'ACHENAR','Bell Terminal','Hauler'
'ACHENAR','Bell Terminal','Sidewinder'
'ACHENAR','Bell Terminal','Type 7'
'ACHENAR','MacMillan Terminal','Eagle'
'ACHENAR','MacMillan Terminal','Hauler'
'ACHENAR','MacMillan Terminal','Orca'
'ACHENAR','MacMillan Terminal','Sidewinder'
'ACHENAR','MacMillan Terminal','Viper'
'AIABIKO','White Orbital','Anaconda'
'AIABIKO','White Orbital','Asp'
'AIABIKO','White Orbital','Dropship'
'AIABIKO','White Orbital','Eagle'
'AIABIKO','White Orbital','Hauler'
'AIABIKO','White Orbital','Sidewinder'
'AIABIKO','White Orbital','Type 6'
'AIABIKO','White Orbital','Type 7'
'ANLAVE','Hogg City','Adder'
'ANLAVE','Hogg City','Cobra'
'ANLAVE','Hogg City','Dropship'
'ANLAVE','Hogg City','Eagle'
'ANLAVE','Hogg City','Hauler'
'ANLAVE','Hogg City','Python'
'ANLAVE','Hogg City','Sidewinder'
'ANLAVE','Hogg City','Type 6'
'ANLAVE','Hogg City','Viper'
'ANLAVE','Kobayashi City','Asp'
'ANLAVE','Kobayashi City','Cobra'
'ANLAVE','Kobayashi City','Eagle'
'ANLAVE','Kobayashi City','Hauler'
'ANLAVE','Kobayashi City','Orca'
'ANLAVE','Kobayashi City','Python'
'ANLAVE','Kobayashi City','Sidewinder'
'ANLAVE','Kobayashi City','Type 6'
'ANLAVE','Kobayashi City','Viper'
'ANLAVE','Suri Park','Asp'
'ANLAVE','Suri Park','Cobra'
'ANLAVE','Suri Park','Eagle'
'ANLAVE','Suri Park','Hauler'
'ANLAVE','Suri Park','Orca'
'ANLAVE','Suri Park','Python'
'ANLAVE','Suri Park','Sidewinder'
'ANLAVE','Suri Park','Type 6'
'ANLAVE','Suri Park','Viper'
'ANNA PERENNA','Wisoff Holdings','Asp'
'ANNA PERENNA','Wisoff Holdings','Eagle'
'ANNA PERENNA','Wisoff Holdings','Hauler'
'ANNA PERENNA','Wisoff Holdings','Sidewinder'
'ANNA PERENNA','Wisoff Holdings','Type 7'
'ANNA PERENNA','Wisoff Holdings','Type 9'
'APTET','Torricelli Port','Dropship'
'APTET','Torricelli Port','Hauler'
'APTET','Torricelli Port','Sidewinder'
'APTET','Torricelli Port','Type 6'
'APTET','Torricelli Port','Type 7'
'APTET','Torricelli Port','Type 9'
'BAST','Hart Station','Cobra'
'BAST','Hart Station','Eagle'
'BHRITZAMENO','Feynman Terminal','Adder'
'BHRITZAMENO','Feynman Terminal','Asp'
'BHRITZAMENO','Feynman Terminal','Cobra'
'BHRITZAMENO','Feynman Terminal','Dropship'
'BHRITZAMENO','Feynman Terminal','Eagle'
'BHRITZAMENO','Feynman Terminal','Hauler'
'BHRITZAMENO','Feynman Terminal','Orca'
'BHRITZAMENO','Feynman Terminal','Python'
'BHRITZAMENO','Feynman Terminal','Sidewinder'
'BHRITZAMENO','Feynman Terminal','Type 6'
'BHRITZAMENO','Feynman Terminal','Type 7'
'BHRITZAMENO','Feynman Terminal','Type 9'
'BHRITZAMENO','Feynman Terminal','Viper'
'BUNUVIVIA','Ellison Enterprise','Adder'
'BUNUVIVIA','Ellison Enterprise','Cobra'
'BUNUVIVIA','Ellison Enterprise','Dropship'
'BUNUVIVIA','Ellison Enterprise','Eagle'
'BUNUVIVIA','Ellison Enterprise','Hauler'
'BUNUVIVIA','Ellison Enterprise','Sidewinder'
'BUNUVIVIA','Ellison Enterprise','Type 6'
'BUNUVIVIA','Ellison Enterprise','Type 7'
'BUNUVIVIA','Ellison Enterprise','Type 9'
'BUNUVIVIA','Ellison Enterprise','Viper'
'CALOR','Julian Hub','Adder'
'CALOR','Julian Hub','Hauler'
'CALOR','Julian Hub','Sidewinder'
'CALOR','Julian Hub','Type 6'
'CALOR','Julian Hub','Type 9'
'CALOR','Julian Hub','Viper'
'CAUANI','Hardy City','Asp'
'CAUANI','Hardy City','Eagle'
'CAUANI','Hardy City','Hauler'
'CAUANI','Hardy City','Sidewinder'
'CAUANI','Hardy City','Type 7'
'DIMOCO','Edison Orbital','Cobra'
'DIMOCO','Edison Orbital','Type 6'
'DIMOCO','Edison Orbital','Type 9'
'DIMOCO','Meitner Ring','Eagle'
'DIMOCO','Meitner Ring','Orca'
'DIMOCO','Meitner Ring','Sidewinder'
'DJENDELIS','Atwater Enterprise','Adder'
'DJENDELIS','Atwater Enterprise','Cobra'
'DJENDELIS','Atwater Enterprise','Dropship'
'DJENDELIS','Atwater Enterprise','Eagle'
'DJENDELIS','Atwater Enterprise','Hauler'
'DJENDELIS','Atwater Enterprise','Sidewinder'
'DJENDELIS','Atwater Enterprise','Type 6'
'DJENDELIS','Atwater Enterprise','Type 7'
'DJENDELIS','Atwater Enterprise','Type 9'
'DJENDELIS','Atwater Enterprise','Viper'
'ERAVATE','Ackerman Market','Eagle'
'ERAVATE','Ackerman Market','Hauler'
'ERAVATE','Ackerman Market','Sidewinder'
'ERAVATE','Ackerman Market','Type 6'
'ERAVATE','Cleve Hub','Cobra'
'ERAVATE','Cleve Hub','Eagle'
'ERAVATE','Cleve Hub','Hauler'
'ERAVATE','Cleve Hub','Sidewinder'
'ERAVATE','Cleve Hub','Type 6'
'ERAVATE','Russell Ring','Cobra'
'ERAVATE','Russell Ring','Eagle'
'ERAVATE','Russell Ring','Hauler'
'ERAVATE','Russell Ring','Sidewinder'
'ERAVATE','Russell Ring','Type 6'
'FK5 2550','Julian Gateway','Asp'
'FK5 2550','Julian Gateway','Dropship'
'FK5 2550','Julian Gateway','Hauler'
'FK5 2550','Julian Gateway','Sidewinder'
'FK5 2550','Julian Gateway','Type 7'
'FK5 2550','Julian Gateway','Type 9'
'FK5 2550','Samokutyayev Dock','Cobra'
'FK5 2550','Samokutyayev Dock','Dropship'
'FK5 2550','Samokutyayev Dock','Hauler'
'FK5 2550','Samokutyayev Dock','Python'
'FK5 2550','Samokutyayev Dock','Sidewinder'
'FK5 2550','Samokutyayev Dock','Type 6'
'FK5 2550','Samokutyayev Dock','Type 9'
'FK5 2550','Samokutyayev Dock','Viper'
'FK5 2550','Vela Ring','Asp'
'FK5 2550','Vela Ring','Dropship'
'FK5 2550','Vela Ring','Hauler'
'FK5 2550','Vela Ring','Sidewinder'
'FK5 2550','Vela Ring','Type 7'
'FK5 2550','Vela Ring','Type 9'
'FK5 2550','Wundt Gateway','Adder'
'FK5 2550','Wundt Gateway','Anaconda'
'FK5 2550','Wundt Gateway','Asp'
'FK5 2550','Wundt Gateway','Dropship'
'FK5 2550','Wundt Gateway','Eagle'
'FK5 2550','Wundt Gateway','Sidewinder'
'FK5 2550','Wundt Gateway','Type 7'
'FK5 2550','Wundt Gateway','Viper'
'G 175-42','Werber Platform','Adder'
'G 175-42','Werber Platform','Cobra'
'G 175-42','Werber Platform','Eagle'
'G 175-42','Werber Platform','Hauler'
'G 175-42','Werber Platform','Sidewinder'
'G 175-42','Werber Platform','Type 6'
'G 175-42','Werber Platform','Type 7'
'GONG GU','Kelly Dock','Adder'
'GONG GU','Kelly Dock','Asp'
'GONG GU','Kelly Dock','Cobra'
'GONG GU','Kelly Dock','Dropship'
'GONG GU','Kelly Dock','Eagle'
'GONG GU','Kelly Dock','Hauler'
'GONG GU','Kelly Dock','Python'
'GONG GU','Kelly Dock','Sidewinder'
'GONG GU','Kelly Dock','Type 6'
'GONG GU','Kelly Dock','Type 7'
'GONG GU','Kelly Dock','Type 9'
'GONG GU','Kelly Dock','Viper'
'HIP 43670','Shaara Gateway','Adder'
'HIP 43670','Shaara Gateway','Cobra'
'HIP 43670','Shaara Gateway','Hauler'
'HIP 43670','Shaara Gateway','Python'
'HIP 43670','Shaara Gateway','Sidewinder'
'HIP 43670','Shaara Gateway','Type 6'
'HIP 43670','Shaara Gateway','Type 9'
'HIP 43670','Shaara Gateway','Viper'
'HIP 87369','Carey Port','Adder'
'HIP 87369','Carey Port','Asp'
'HIP 87369','Carey Port','Cobra'
'HIP 87369','Carey Port','Dropship'
'HIP 87369','Carey Port','Eagle'
'HIP 87369','Carey Port','Hauler'
'HIP 87369','Carey Port','Sidewinder'
'HIP 87369','Carey Port','Type 6'
'HIP 87369','Carey Port','Type 7'
'HIP 87369','Carey Port','Viper'
'HR 5451','Fraser Station','Asp'
'HR 5451','Fraser Station','Hauler'
'HR 5451','Fraser Station','Sidewinder'
'HR 5451','Fraser Station','Type 7'
'HR 5451','Fraser Station','Type 9'
'HR 5451','MacDonald Hub','Adder'
'HR 5451','MacDonald Hub','Cobra'
'HR 5451','MacDonald Hub','Eagle'
'HR 5451','MacDonald Hub','Sidewinder'
'HR 5451','MacDonald Hub','Type 6'
'HR 8170','Fiennes Vision','Adder'
'HR 8170','Fiennes Vision','Asp'
'HR 8170','Fiennes Vision','Cobra'
'HR 8170','Fiennes Vision','Dropship'
'HR 8170','Fiennes Vision','Orca'
'HR 8170','Fiennes Vision','Python'
'HR 8170','Fiennes Vision','Sidewinder'
'HR 8170','Fiennes Vision','Type 6'
'HR 8170','Fiennes Vision','Viper'
'HU JONA','Russell Station','Eagle'
'HU JONA','Russell Station','Hauler'
'HU JONA','Russell Station','Sidewinder'
'HU JONA','Russell Station','Type 6'
'HU JONA','Russell Station','Type 7'
'IOTA PERSEI','Walker City','Adder'
'IOTA PERSEI','Walker City','Anaconda'
'IOTA PERSEI','Walker City','Asp'
'IOTA PERSEI','Walker City','Cobra'
'IOTA PERSEI','Walker City','Dropship'
'IOTA PERSEI','Walker City','Eagle'
'IOTA PERSEI','Walker City','Hauler'
'IOTA PERSEI','Walker City','Orca'
'IOTA PERSEI','Walker City','Sidewinder'
'IOTA PERSEI','Walker City','Type 6'
'IOTA PERSEI','Walker City','Type 7'
'IOTA PERSEI','Walker City','Type 9'
'IOTA PERSEI','Walker City','Viper'
'KALIKI','Oren City','Adder'
'KALIKI','Oren City','Anaconda'
'KALIKI','Oren City','Asp'
'KALIKI','Oren City','Clipper'
'KALIKI','Oren City','Cobra'
'KALIKI','Oren City','Eagle'
'KALIKI','Oren City','Hauler'
'KALIKI','Oren City','Python'
'KALIKI','Oren City','Sidewinder'
'KALIKI','Oren City','Type 6'
'KALIKI','Oren City','Type 7'
'KALIKI','Oren City','Viper'
'KANOS','Geston Ring','Adder'
'KANOS','Geston Ring','Asp'
'KANOS','Geston Ring','Cobra'
'KANOS','Geston Ring','Dropship'
'KANOS','Geston Ring','Eagle'
'KANOS','Geston Ring','Hauler'
'KANOS','Geston Ring','Python'
'KANOS','Geston Ring','Sidewinder'
'KANOS','Geston Ring','Type 6'
'KANOS','Geston Ring','Type 7'
'KANOS','Geston Ring','Type 9'
'KANOS','Geston Ring','Viper'
'KRUGER 60','Kepler Gateway','Cobra'
'KRUGER 60','Kepler Gateway','Dropship'
'KRUGER 60','Kepler Gateway','Eagle'
'KRUGER 60','Kepler Gateway','Hauler'
'KRUGER 60','Kepler Gateway','Orca'
'KRUGER 60','Kepler Gateway','Python'
'KRUGER 60','Kepler Gateway','Sidewinder'
'KRUGER 60','Kepler Gateway','Type 6'
'KRUGER 60','Kepler Gateway','Type 9'
'KRUGER 60','Kepler Gateway','Viper'
'LFT 1448','Dirac Enterprise','Anaconda'
'LFT 1448','Dirac Enterprise','Asp'
'LFT 1448','Dirac Enterprise','Cobra'
'LFT 1448','Dirac Enterprise','Dropship'
'LFT 1448','Dirac Enterprise','Hauler'
'LFT 1448','Dirac Enterprise','Sidewinder'
'LFT 1448','Dirac Enterprise','Type 6'
'LFT 1448','Dirac Enterprise','Type 9'
'LFT 926','Meredith City','Adder'
'LFT 926','Meredith City','Asp'
'LFT 926','Meredith City','Cobra'
'LFT 926','Meredith City','Eagle'
'LFT 926','Meredith City','Hauler'
'LFT 926','Meredith City','Orca'
'LFT 926','Meredith City','Python'
'LFT 926','Meredith City','Sidewinder'
'LFT 926','Meredith City','Type 6'
'LFT 926','Meredith City','Type 7'
'LFT 926','Meredith City','Type 9'
'LFT 926','Meredith City','Viper'
'LHANGKAMBE','Detmer Orbital','Adder'
'LHANGKAMBE','Detmer Orbital','Dropship'
'LHANGKAMBE','Detmer Orbital','Eagle'
'LHANGKAMBE','Detmer Orbital','Hauler'
'LHANGKAMBE','Detmer Orbital','Sidewinder'
'LHANGKAMBE','Detmer Orbital','Type 7'
'LHANGKAMBE','Detmer Orbital','Type 9'
'LHANGKAMBE','Detmer Orbital','Viper'
'LHANGKAMBE','Jacquard Dock','Adder'
'LHANGKAMBE','Jacquard Dock','Dropship'
'LHANGKAMBE','Jacquard Dock','Eagle'
'LHANGKAMBE','Jacquard Dock','Hauler'
'LHANGKAMBE','Jacquard Dock','Sidewinder'
'LHANGKAMBE','Jacquard Dock','Type 7'
'LHANGKAMBE','Jacquard Dock','Type 9'
'LHANGKAMBE','Jacquard Dock','Viper'
'LHANGKAMBE','Yeliseyev Terminal','Adder'
'LHANGKAMBE','Yeliseyev Terminal','Cobra'
'LHANGKAMBE','Yeliseyev Terminal','Eagle'
'LHANGKAMBE','Yeliseyev Terminal','Hauler'
'LHANGKAMBE','Yeliseyev Terminal','Sidewinder'
'LHANGKAMBE','Yeliseyev Terminal','Viper'
'LHS 115','Aleksandrov Gateway','Anaconda'
'LHS 115','Aleksandrov Gateway','Asp'
'LHS 115','Aleksandrov Gateway','Cobra'
'LHS 115','Aleksandrov Gateway','Dropship'
'LHS 115','Aleksandrov Gateway','Eagle'
'LHS 115','Aleksandrov Gateway','Hauler'
'LHS 115','Aleksandrov Gateway','Orca'
'LHS 115','Aleksandrov Gateway','Python'
'LHS 115','Aleksandrov Gateway','Sidewinder'
'LHS 115','Aleksandrov Gateway','Type 7'
'LHS 115','Aleksandrov Gateway','Type 9'
'LHS 115','Aleksandrov Gateway','Viper'
'LHS 1446','Blalock Orbital','Adder'
'LHS 1446','Blalock Orbital','Cobra'
'LHS 1446','Blalock Orbital','Eagle'
'LHS 1446','Blalock Orbital','Hauler'
'LHS 1446','Blalock Orbital','Python'
'LHS 1446','Blalock Orbital','Sidewinder'
'LHS 1446','Blalock Orbital','Type 6'
'LHS 1446','Blalock Orbital','Type 9'
'LHS 1446','Blalock Orbital','Viper'
'LHS 1914','Bohm Terminal','Adder'
'LHS 1914','Bohm Terminal','Cobra'
'LHS 1914','Bohm Terminal','Eagle'
'LHS 1914','Bohm Terminal','Sidewinder'
'LHS 1914','Bohm Terminal','Type 6'
'LHS 1914','Galvani Port','Cobra'
'LHS 1914','Galvani Port','Eagle'
'LHS 1914','Galvani Port','Sidewinder'
'LHS 1914','Galvani Port','Type 6'
'LHS 1914','Galvani Port','Type 7'
'LHS 1914','Heisenberg Terminal','Cobra'
'LHS 1914','Heisenberg Terminal','Eagle'
'LHS 1914','Heisenberg Terminal','Sidewinder'
'LHS 1914','Heisenberg Terminal','Type 6'
'LHS 1914','Heisenberg Terminal','Type 7'
'LHS 1914','Vittori Terminal','Adder'
'LHS 1914','Vittori Terminal','Cobra'
'LHS 1914','Vittori Terminal','Eagle'
'LHS 1914','Vittori Terminal','Sidewinder'
'LHS 1914','Vittori Terminal','Type 6'
'LHS 220','Culpeper Colony','Eagle'
'LHS 220','Culpeper Colony','Hauler'
'LHS 220','Culpeper Colony','Sidewinder'
'LHS 220','Culpeper Colony','Type 6'
'LHS 220','Culpeper Colony','Type 7'
'LHS 220','Culpeper Colony','Type 9'
'LHS 220','Culpeper Colony','Viper'
'LHS 277','Rowley Port','Adder'
'LHS 277','Rowley Port','Cobra'
'LHS 277','Rowley Port','Eagle'
'LHS 277','Rowley Port','Hauler'
'LHS 277','Rowley Port','Python'
'LHS 277','Rowley Port','Sidewinder'
'LHS 277','Rowley Port','Type 6'
'LHS 277','Rowley Port','Type 7'
'LHS 277','Rowley Port','Type 9'
'LHS 277','Rowley Port','Viper'
'LHS 3447','Dalton Gateway','Asp'
'LHS 3447','Dalton Gateway','Hauler'
'LHS 3447','Dalton Gateway','Sidewinder'
'LHS 3447','Dalton Gateway','Type 9'
'LHS 3447','Worlidge Terminal','Cobra'
'LHS 3447','Worlidge Terminal','Type 6'
'LHS 3447','Worlidge Terminal','Viper'
'LHS 3447','Yaping Enterprise','Cobra'
'LHS 3447','Yaping Enterprise','Type 6'
'LHS 3447','Yaping Enterprise','Viper'
'LP 205-44','Kaku Horizons','Adder'
'LP 205-44','Kaku Horizons','Anaconda'
'LP 205-44','Kaku Horizons','Asp'
'LP 205-44','Kaku Horizons','Dropship'
'LP 205-44','Kaku Horizons','Eagle'
'LP 205-44','Kaku Horizons','Hauler'
'LP 205-44','Kaku Horizons','Orca'
'LP 205-44','Kaku Horizons','Python'
'LP 205-44','Kaku Horizons','Sidewinder'
'LP 205-44','Kaku Horizons','Viper'
'LP 255-11','Burbank Port','Adder'
'LP 255-11','Burbank Port','Cobra'
'LP 255-11','Burbank Port','Eagle'
'LP 255-11','Burbank Port','Hauler'
'LP 255-11','Burbank Port','Python'
'LP 255-11','Burbank Port','Sidewinder'
'LP 255-11','Burbank Port','Type 6'
'LP 255-11','Burbank Port','Type 9'
'LP 255-11','Burbank Port','Viper'
'LTT 15449','Binet Port','Adder'
'LTT 15449','Binet Port','Anaconda'
'LTT 15449','Binet Port','Asp'
'LTT 15449','Binet Port','Dropship'
'LTT 15449','Binet Port','Eagle'
'LTT 15449','Binet Port','Sidewinder'
'LTT 15449','Binet Port','Type 7'
'LTT 15449','Binet Port','Viper'
'LTT 15574','Haxel Port','Adder'
'LTT 15574','Haxel Port','Cobra'
'LTT 15574','Haxel Port','Dropship'
'LTT 15574','Haxel Port','Eagle'
'LTT 15574','Haxel Port','Hauler'
'LTT 15574','Haxel Port','Sidewinder'
'LTT 15574','Haxel Port','Type 6'
'LTT 15574','Haxel Port','Type 7'
'LTT 15574','Haxel Port','Type 9'
'LTT 15574','Haxel Port','Viper'
'LTT 4131','Lorrah Terminal','Cobra'
'LTT 4131','Lorrah Terminal','Dropship'
'LTT 4131','Lorrah Terminal','Eagle'
'LTT 4131','Lorrah Terminal','Hauler'
'LTT 4131','Lorrah Terminal','Python'
'LTT 4131','Lorrah Terminal','Sidewinder'
'LTT 4131','Lorrah Terminal','Type 6'
'LTT 4131','Lorrah Terminal','Type 9'
'LTT 4131','Lorrah Terminal','Viper'
'LU VELORUM','Miletus Station','Anaconda'
'LU VELORUM','Miletus Station','Asp'
'LU VELORUM','Miletus Station','Cobra'
'LU VELORUM','Miletus Station','Hauler'
'LU VELORUM','Miletus Station','Python'
'LU VELORUM','Miletus Station','Sidewinder'
'LU VELORUM','Miletus Station','Type 7'
'LU VELORUM','Miletus Station','Type 9'
'LU VELORUM','Miletus Station','Viper'
'MEINJHALARA','Fremont Port','Adder'
'MEINJHALARA','Fremont Port','Anaconda'
'MEINJHALARA','Fremont Port','Asp'
'MEINJHALARA','Fremont Port','Cobra'
'MEINJHALARA','Fremont Port','Eagle'
'MEINJHALARA','Fremont Port','Hauler'
'MEINJHALARA','Fremont Port','Orca'
'MEINJHALARA','Fremont Port','Sidewinder'
'MEINJHALARA','Fremont Port','Viper'
'NETO','Ising Vision','Adder'
'NETO','Ising Vision','Anaconda'
'NETO','Ising Vision','Asp'
'NETO','Ising Vision','Cobra'
'NETO','Ising Vision','Dropship'
'NETO','Ising Vision','Eagle'
'NETO','Ising Vision','Hauler'
'NETO','Ising Vision','Orca'
'NETO','Ising Vision','Python'
'NETO','Ising Vision','Sidewinder'
'NETO','Ising Vision','Type 9'
'NETO','Ising Vision','Viper'
'OBAMBIVAS','Clebsch Terminal','Asp'
'OBAMBIVAS','Clebsch Terminal','Orca'
'OBAMBIVAS','Clebsch Terminal','Sidewinder'
'OBAMBIVAS','Galouye Terminal','Orca'
'OBAMBIVAS','Galouye Terminal','Sidewinder'
'OBAMBIVAS','Kennan Orbital','Cobra'
'OBAMBIVAS','Kennan Orbital','Type 6'
'OBAMBIVAS','Kennan Orbital','Type 7'
'ONGKAMPAN','Fawcett Gateway','Adder'
'ONGKAMPAN','Fawcett Gateway','Anaconda'
'ONGKAMPAN','Fawcett Gateway','Cobra'
'ONGKAMPAN','Fawcett Gateway','Eagle'
'ONGKAMPAN','Fawcett Gateway','Hauler'
'ONGKAMPAN','Fawcett Gateway','Sidewinder'
'ONGKAMPAN','Fawcett Gateway','Type 6'
'ONGKAMPAN','Fawcett Gateway','Viper'
'ONGKAMPAN','Patterson Station','Asp'
'ONGKAMPAN','Patterson Station','Eagle'
'ONGKAMPAN','Patterson Station','Hauler'
'ONGKAMPAN','Patterson Station','Sidewinder'
'ONGKAMPAN','Patterson Station','Type 7'
'ONGKAMPAN','Rawat Hub','Adder'
'ONGKAMPAN','Rawat Hub','Anaconda'
'ONGKAMPAN','Rawat Hub','Cobra'
'ONGKAMPAN','Rawat Hub','Eagle'
'ONGKAMPAN','Rawat Hub','Hauler'
'ONGKAMPAN','Rawat Hub','Sidewinder'
'ONGKAMPAN','Rawat Hub','Type 6'
'ONGKAMPAN','Rawat Hub','Viper'
'PERADJARIU','Vries Port','Adder'
'PERADJARIU','Vries Port','Anaconda'
'PERADJARIU','Vries Port','Cobra'
'PERADJARIU','Vries Port','Eagle'
'PERADJARIU','Vries Port','Hauler'
'PERADJARIU','Vries Port','Python'
'PERADJARIU','Vries Port','Sidewinder'
'PERADJARIU','Vries Port','Type 6'
'PERADJARIU','Vries Port','Type 9'
'PERADJARIU','Vries Port','Viper'
'RHO GEMINORUM','Crick Enterprise','Asp'
'RHO GEMINORUM','Crick Enterprise','Dropship'
'RHO GEMINORUM','Crick Enterprise','Eagle'
'RHO GEMINORUM','Crick Enterprise','Hauler'
'RHO GEMINORUM','Crick Enterprise','Sidewinder'
'RHO GEMINORUM','Crick Enterprise','Type 6'
'RHO GEMINORUM','Crick Enterprise','Type 7'
'RHO GEMINORUM','Crick Enterprise','Type 9'
'RHO GEMINORUM','Khan City','Eagle'
'RHO GEMINORUM','Khan City','Hauler'
'RHO GEMINORUM','Khan City','Sidewinder'
'RHO GEMINORUM','Khan City','Type 6'
'RHO GEMINORUM','Khan City','Type 7'
'RHO GEMINORUM','Macquorn Rankine Gateway','Eagle'
'RHO GEMINORUM','Macquorn Rankine Gateway','Hauler'
'RHO GEMINORUM','Macquorn Rankine Gateway','Sidewinder'
'RHO GEMINORUM','Macquorn Rankine Gateway','Type 6'
'RHO GEMINORUM','Macquorn Rankine Gateway','Type 7'
'RHO GEMINORUM','Whitworth Station','Cobra'
'RHO GEMINORUM','Whitworth Station','Eagle'
'RHO GEMINORUM','Whitworth Station','Hauler'
'RHO GEMINORUM','Whitworth Station','Type 7'
'RHO GEMINORUM','Whitworth Station','Type 9'
'ROSS 1069','Viehbock City','Adder'
'ROSS 1069','Viehbock City','Asp'
'ROSS 1069','Viehbock City','Dropship'
'ROSS 1069','Viehbock City','Eagle'
'ROSS 1069','Viehbock City','Hauler'
'ROSS 1069','Viehbock City','Sidewinder'
'ROSS 1069','Viehbock City','Type 6'
'ROSS 1069','Viehbock City','Type 7'
'ROSS 1069','Viehbock City','Type 9'
'ROSS 1069','Viehbock City','Viper'
'SHINRARTA DEZHRA','Jameson Memorial','Adder'
'SHINRARTA DEZHRA','Jameson Memorial','Anaconda'
'SHINRARTA DEZHRA','Jameson Memorial','Asp'
'SHINRARTA DEZHRA','Jameson Memorial','Cobra'
'SHINRARTA DEZHRA','Jameson Memorial','Eagle'
'SHINRARTA DEZHRA','Jameson Memorial','Hauler'
'SHINRARTA DEZHRA','Jameson Memorial','Orca'
'SHINRARTA DEZHRA','Jameson Memorial','Python'
'SHINRARTA DEZHRA','Jameson Memorial','Sidewinder'
'SHINRARTA DEZHRA','Jameson Memorial','Type 6'
'SHINRARTA DEZHRA','Jameson Memorial','Type 7'
'SHINRARTA DEZHRA','Jameson Memorial','Type 9'
'SHINRARTA DEZHRA','Jameson Memorial','Viper'
'SKEGGIKO O','Kuo Terminal','Asp'
'SKEGGIKO O','Kuo Terminal','Cobra'
'SKEGGIKO O','Kuo Terminal','Dropship'
'SKEGGIKO O','Kuo Terminal','Eagle'
'SKEGGIKO O','Kuo Terminal','Hauler'
'SKEGGIKO O','Kuo Terminal','Sidewinder'
'SKEGGIKO O','Kuo Terminal','Type 7'
'SKEGGIKO O','Kuo Terminal','Viper'
'SOCH','Whitcomb Ring','Adder'
'SOCH','Whitcomb Ring','Clipper'
'SOCH','Whitcomb Ring','Cobra'
'SOCH','Whitcomb Ring','Eagle'
'SOCH','Whitcomb Ring','Hauler'
'SOCH','Whitcomb Ring','Orca'
'SOCH','Whitcomb Ring','Python'
'SOCH','Whitcomb Ring','Sidewinder'
'SOCH','Whitcomb Ring','Type 6'
'SOCH','Whitcomb Ring','Type 7'
'SOCH','Whitcomb Ring','Type 9'
'SOCH','Whitcomb Ring','Viper'
'SOL','Columbus','Adder'
'SOL','Columbus','Hauler'
'SOL','Columbus','Sidewinder'
'SOL','Columbus','Type 6'
'SOL','Columbus','Type 9'
'SOL','Columbus','Viper'
'SOL','Daedalus','Eagle'
'SOL','Daedalus','Hauler'
'SOL','Daedalus','Sidewinder'
'SOL','Daedalus','Type 7'
'SOL','Daedalus','Type 9'
'SOL','Galileo','Eagle'
'SOL','Galileo','Hauler'
'SOL','Galileo','Sidewinder'
'SOL','Galileo','Type 7'
'SOL','Galileo','Type 9'
'SOL','Li Qing Jao','Cobra'
'SOL','Li Qing Jao','Type 6'
'SOL','Li Qing Jao','Viper'
'SOL','M.Gorbachev','Cobra'
'SOL','M.Gorbachev','Type 6'
'SOL','M.Gorbachev','Viper'
'SOL','Mars High','Cobra'
'SOL','Mars High','Type 6'
'SOL','Mars High','Viper'
'SOL','Titan City','Cobra'
'SOL','Titan City','Eagle'
'SOL','Titan City','Sidewinder'
'SOL','Titan City','Type 6'
'SOL','Titan City','Viper'
'SOLATI','Ising Refinery','Adder'
'SOLATI','Ising Refinery','Cobra'
'SOLATI','Ising Refinery','Eagle'
'SOLATI','Ising Refinery','Sidewinder'
'SOLATI','Ising Refinery','Type 6'
'SOLATI','Solati Reach','Eagle'
'SOLATI','Solati Reach','Hauler'
'SOLATI','Solati Reach','Sidewinder'
'TAU-1 HYDRAE','Priestley Port','Adder'
'TAU-1 HYDRAE','Priestley Port','Asp'
'TAU-1 HYDRAE','Priestley Port','Dropship'
'TAU-1 HYDRAE','Priestley Port','Eagle'
'TAU-1 HYDRAE','Priestley Port','Hauler'
'TAU-1 HYDRAE','Priestley Port','Sidewinder'
'TAU-1 HYDRAE','Priestley Port','Type 6'
'TAU-1 HYDRAE','Priestley Port','Type 7'
'TAU-1 HYDRAE','Priestley Port','Type 9'
'TAUERNI','Rushworth Port','Adder'
'TAUERNI','Rushworth Port','Eagle'
'TAUERNI','Rushworth Port','Hauler'
'TAUERNI','Rushworth Port','Sidewinder'
'TAUERNI','Rushworth Port','Type 9'
'TAUERNI','Rushworth Port','Viper'
'THIANSI','Worlidge Port','Cobra'
'THIANSI','Worlidge Port','Dropship'
'THIANSI','Worlidge Port','Eagle'
'THIANSI','Worlidge Port','Hauler'
'THIANSI','Worlidge Port','Orca'
'THIANSI','Worlidge Port','Python'
'THIANSI','Worlidge Port','Sidewinder'
'THIANSI','Worlidge Port','Type 6'
'THIANSI','Worlidge Port','Type 9'
'THIANSI','Worlidge Port','Viper'
'THIIN','Euler Orbital','Asp'
'THIIN','Euler Orbital','Eagle'
'THIIN','Euler Orbital','Hauler'
'THIIN','Euler Orbital','Sidewinder'
'THIIN','Euler Orbital','Type 6'
'THIIN','Euler Orbital','Type 7'
'VOLKHAB','Vernadsky Dock','Adder'
'VOLKHAB','Vernadsky Dock','Anaconda'
'VOLKHAB','Vernadsky Dock','Asp'
'VOLKHAB','Vernadsky Dock','Cobra'
'VOLKHAB','Vernadsky Dock','Dropship'
'VOLKHAB','Vernadsky Dock','Eagle'
'VOLKHAB','Vernadsky Dock','Hauler'
'VOLKHAB','Vernadsky Dock','Orca'
'VOLKHAB','Vernadsky Dock','Sidewinder'
'VOLKHAB','Vernadsky Dock','Type 6'
'VOLKHAB','Vernadsky Dock','Type 7'
'VOLKHAB','Vernadsky Dock','Viper'
'WISE 1800+0134','Underwood Dock','Adder'
'WISE 1800+0134','Underwood Dock','Cobra'
'WISE 1800+0134','Underwood Dock','Eagle'
'WISE 1800+0134','Underwood Dock','Hauler'
'WISE 1800+0134','Underwood Dock','Sidewinder'
'WISE 1800+0134','Underwood Dock','Type 6'
'WISE 1800+0134','Underwood Dock','Viper'
'WOLF 562','Hopkins Port','Adder'
'WOLF 562','Hopkins Port','Cobra'
'WOLF 562','Hopkins Port','Dropship'
'WOLF 562','Hopkins Port','Eagle'
'WOLF 562','Hopkins Port','Orca'
'WOLF 562','Hopkins Port','Python'
'WOLF 562','Hopkins Port','Sidewinder'
'WOLF 562','Hopkins Port','Type 7'
'WOLF 562','Hopkins Port','Type 9'
'WOLF 562','Hopkins Port','Viper'
'YAKABUGAI','Serebrov Station','Anaconda'
'YAKABUGAI','Serebrov Station','Asp'
'YAKABUGAI','Serebrov Station','Dropship'
'YAKABUGAI','Serebrov Station','Eagle'
'YAKABUGAI','Serebrov Station','Hauler'
'YAKABUGAI','Serebrov Station','Sidewinder'
'YAKABUGAI','Serebrov Station','Type 9'
'ZAONCE','Ridley Scott','Anaconda'
'ZAONCE','Ridley Scott','Asp'
'ZAONCE','Ridley Scott','Dropship'
'ZAONCE','Ridley Scott','Eagle'
'ZAONCE','Ridley Scott','Hauler'
'ZAONCE','Ridley Scott','Sidewinder'
'ZAONCE','Ridley Scott','Type 6'
'ZAONCE','Ridley Scott','Type 7'
