unq:name,cost
'Adder',87808
'Anaconda',146969451
'Asp',6661153
'Clipper',22295860
'Cobra',379718
'Dropship',37814205
'Eagle',44800
'Hauler',52720
'Orca',48539887
'Python',56978179
'Sidewinder',32000
'Type 6',1045945
'Type 7',17472252
'Type 9',76555842
'Viper',142931
